[
  {
    "inapplicable": [
      {
        "description": "Ensure the autocomplete attribute is correct and suitable for the form field",
        "help": "autocomplete attribute must be used correctly",
        "helpUrl": "https://dequeuniversity.com/rules/axe/4.2/autocomplete-valid?application=webdriverjs",
        "id": "autocomplete-valid",
        "impact": null,
        "nodes": [],
        "tags": [
          "cat.forms",
          "wcag21aa",
          "wcag135"
        ]
      }
    ],
    "incomplete": [],
    "passes": [
      {
        "description": "Ensure that text spacing set through style attributes can be adjusted with custom stylesheets",
        "help": "Inline text spacing must be adjustable with custom stylesheets",
        "helpUrl": "https://dequeuniversity.com/rules/axe/4.2/avoid-inline-spacing?application=webdriverjs",
        "id": "avoid-inline-spacing",
        "impact": null,
        "nodes": [
          {
            "all": [
              {
                "data": null,
                "id": "avoid-inline-spacing",
                "impact": "serious",
                "message": "No inline styles with '!important' that affect text spacing has been specified",
                "relatedNodes": []
              }
            ],
            "any": [],
            "html": "<div style=\"width: 304px; height: 78px;\">",
            "impact": null,
            "none": [],
            "target": [
              ".g-recaptcha > div"
            ]
          }
        ],
        "tags": [
          "cat.structure",
          "wcag21aa",
          "wcag1412"
        ]
      }
    ],
    "testEngine": {
      "name": "axe-core",
      "version": "4.2.0"
    },
    "testEnvironment": {
      "orientationAngle": 0,
      "orientationType": "landscape-primary",
      "userAgent": "Mozilla/5.0 (Macintosh; Intel Mac OS X 10_14_6) AppleWebKit/537.36 (KHTML, like Gecko) HeadlessChrome/90.0.4430.93 Safari/537.36",
      "windowHeight": 600,
      "windowWidth": 800
    },
    "testRunner": {
      "name": "axe"
    },
    "timestamp": "2021-05-08T03:05:12.395Z",
    "toolOptions": {
      "reporter": "v1",
      "runOnly": {
        "type": "tag",
        "values": [
          "wcag21aa"
        ]
      }
    },
    "url": "https://www.drupal.org/",
    "violations": []
  }
]